Time Series Data Analysis
…
Context: Questions and Objectives

The general problem of interest is to distinguish between waveforms generated by earthquakes versus those generated by explosions.

Mathematical Framework

Statistical applications are often based on one or more data frames in which each row represents an observation and each column represents a variable of interest. Consider for example the predator-prey data previously shown.

# A tibble: 91 × 3
     yr  hare  lynx
  <dbl> <dbl> <dbl>
1  1845  19.6  30.1
2  1846  19.6  45.2
3  1847  19.6  49.2
4  1848  12.0  39.5
5  1849  28.0  21.2
# ℹ 86 more rows
…
